^C:\DOCUMENTS AND SETTINGS\S503.DOMAIN3\DESKTOP\NESTED_FOR\NESTED_FOR\NESTED_FOR.CPP
/c /ZI /nologo /W3 /WX- /Od /Oy- /D WIN32 /D _DEBUG /D _CONSOLE /D _UNICODE /D UNICODE /Gm /EHsc /RTC1 /MDd /GS /fp:precise /Zc:wchar_t /Zc:forScope /Fo"Debug\\" /Fd"Debug\vc100.pdb" /Gd /TP /analyze- /errorReport:prompt C:\DOCUMENTS AND SETTINGS\S503.DOMAIN3\DESKTOP\NESTED_FOR\NESTED_FOR\NESTED_FOR.CPP
^C:\DOCUMENTS AND SETTINGS\S503.DOMAIN3\DESKTOP\NESTED_FOR\NESTED_FOR\STDAFX.CPP
/c /ZI /nologo /W3 /WX- /Od /Oy- /D WIN32 /D _DEBUG /D _CONSOLE /D _UNICODE /D UNICODE /Gm /EHsc /RTC1 /MDd /GS /fp:precise /Zc:wchar_t /Zc:forScope /Fo"Debug\\" /Fd"Debug\vc100.pdb" /Gd /TP /analyze- /errorReport:prompt C:\DOCUMENTS AND SETTINGS\S503.DOMAIN3\DESKTOP\NESTED_FOR\NESTED_FOR\STDAFX.CPP
