^C:\DOCUMENTS AND SETTINGS\S503.DOMAIN3\DESKTOP\NESTED_FOR\NESTED_FOR\STDAFX.CPP
/c /Zi /nologo /W3 /WX- /O2 /Oi /Oy- /GL /D WIN32 /D NDEBUG /D _CONSOLE /D _UNICODE /D UNICODE /Gm- /EHsc /MD /GS /Gy /fp:precise /Zc:wchar_t /Zc:forScope /Fo"Release\\" /Fd"Release\vc100.pdb" /Gd /TP /analyze- /errorReport:prompt C:\DOCUMENTS AND SETTINGS\S503.DOMAIN3\DESKTOP\NESTED_FOR\NESTED_FOR\STDAFX.CPP
^C:\DOCUMENTS AND SETTINGS\S503.DOMAIN3\DESKTOP\NESTED_FOR\NESTED_FOR\NESTED_FOR.CPP
/c /Zi /nologo /W3 /WX- /O2 /Oi /Oy- /GL /D WIN32 /D NDEBUG /D _CONSOLE /D _UNICODE /D UNICODE /Gm- /EHsc /MD /GS /Gy /fp:precise /Zc:wchar_t /Zc:forScope /Fo"Release\\" /Fd"Release\vc100.pdb" /Gd /TP /analyze- /errorReport:prompt C:\DOCUMENTS AND SETTINGS\S503.DOMAIN3\DESKTOP\NESTED_FOR\NESTED_FOR\NESTED_FOR.CPP
