^C:\USERS\TOSHIBA\DESKTOP\ASM\MATRIXCHAINMULTIPLICATION\MATRIXCHAINMULTIPLICATION\MATRIXCHAINMULTIPLICATION.CPP
/c /ZI /nologo /W3 /WX- /Od /Oy- /D WIN32 /D _DEBUG /D _CONSOLE /D _UNICODE /D UNICODE /Gm /EHsc /RTC1 /MDd /GS /fp:precise /Zc:wchar_t /Zc:forScope /Fo"Debug\\" /Fd"Debug\vc100.pdb" /Gd /TP /analyze- /errorReport:prompt C:\USERS\TOSHIBA\DESKTOP\ASM\MATRIXCHAINMULTIPLICATION\MATRIXCHAINMULTIPLICATION\MATRIXCHAINMULTIPLICATION.CPP
^C:\USERS\TOSHIBA\DESKTOP\ASM\MATRIXCHAINMULTIPLICATION\MATRIXCHAINMULTIPLICATION\STDAFX.CPP
/c /ZI /nologo /W3 /WX- /Od /Oy- /D WIN32 /D _DEBUG /D _CONSOLE /D _UNICODE /D UNICODE /Gm /EHsc /RTC1 /MDd /GS /fp:precise /Zc:wchar_t /Zc:forScope /Fo"Debug\\" /Fd"Debug\vc100.pdb" /Gd /TP /analyze- /errorReport:prompt C:\USERS\TOSHIBA\DESKTOP\ASM\MATRIXCHAINMULTIPLICATION\MATRIXCHAINMULTIPLICATION\STDAFX.CPP
