^F:\VENELIN\UPRAJNENIQ\ASM_ALGORITMI\COMBINATIONSTEPBYSTEP\COMBINATIONSTEPBYSTEP\DEBUG\COMBINATIONSTEPBYSTEP.EXE.INTERMEDIATE.MANIFEST
F:\VENELIN\UPRAJNENIQ\ASM_ALGORITMI\COMBINATIONSTEPBYSTEP\COMBINATIONSTEPBYSTEP\DEBUG\COMBINATIONSTEPBYSTEP.EXE.EMBED.MANIFEST
^D:\ASM_ALGORITMI\COMBINATIONSTEPBYSTEP\COMBINATIONSTEPBYSTEP\DEBUG\COMBINATIONSTEPBYSTEP.EXE.INTERMEDIATE.MANIFEST
D:\ASM_ALGORITMI\COMBINATIONSTEPBYSTEP\COMBINATIONSTEPBYSTEP\DEBUG\COMBINATIONSTEPBYSTEP.EXE.EMBED.MANIFEST
