^F:\VENELIN\UPRAJNENIQ\ASM_ALGORITMI\COMBINATIONS\COMBINATIONS\DEBUG\COMBINATIONS_MANIFEST.RC
F:\VENELIN\UPRAJNENIQ\ASM_ALGORITMI\COMBINATIONS\COMBINATIONS\DEBUG\COMBINATIONS.EXE.EMBED.MANIFEST
^D:\ASM_ALGORITMI\COMBINATIONS\COMBINATIONS\DEBUG\COMBINATIONS_MANIFEST.RC
D:\ASM_ALGORITMI\COMBINATIONS\COMBINATIONS\DEBUG\COMBINATIONS.EXE.EMBED.MANIFEST
