^F:\VENELIN\UPRAJNENIQ\ASM_ALGORITMI\PERMUTATIONS\PERMUTATIONS\DEBUG\PERMUTATIONS.EXE.EMBED.MANIFEST.RES|F:\VENELIN\UPRAJNENIQ\ASM_ALGORITMI\PERMUTATIONS\PERMUTATIONS\DEBUG\PERMUTATIONS.OBJ|F:\VENELIN\UPRAJNENIQ\ASM_ALGORITMI\PERMUTATIONS\PERMUTATIONS\DEBUG\STDAFX.OBJ
C:\PROGRAM FILES (X86)\MICROSOFT SDKS\WINDOWS\V7.0A\LIB\KERNEL32.LIB
C:\PROGRAM FILES (X86)\MICROSOFT SDKS\WINDOWS\V7.0A\LIB\USER32.LIB
C:\PROGRAM FILES (X86)\MICROSOFT SDKS\WINDOWS\V7.0A\LIB\GDI32.LIB
C:\PROGRAM FILES (X86)\MICROSOFT SDKS\WINDOWS\V7.0A\LIB\WINSPOOL.LIB
C:\PROGRAM FILES (X86)\MICROSOFT SDKS\WINDOWS\V7.0A\LIB\COMDLG32.LIB
C:\PROGRAM FILES (X86)\MICROSOFT SDKS\WINDOWS\V7.0A\LIB\ADVAPI32.LIB
C:\PROGRAM FILES (X86)\MICROSOFT SDKS\WINDOWS\V7.0A\LIB\SHELL32.LIB
C:\PROGRAM FILES (X86)\MICROSOFT SDKS\WINDOWS\V7.0A\LIB\OLE32.LIB
C:\PROGRAM FILES (X86)\MICROSOFT SDKS\WINDOWS\V7.0A\LIB\OLEAUT32.LIB
C:\PROGRAM FILES (X86)\MICROSOFT SDKS\WINDOWS\V7.0A\LIB\UUID.LIB
C:\PROGRAM FILES (X86)\MICROSOFT SDKS\WINDOWS\V7.0A\LIB\ODBC32.LIB
C:\PROGRAM FILES (X86)\MICROSOFT SDKS\WINDOWS\V7.0A\LIB\ODBCCP32.LIB
F:\VENELIN\UPRAJNENIQ\ASM_ALGORITMI\PERMUTATIONS\PERMUTATIONS\DEBUG\PERMUTATIONS.EXE.EMBED.MANIFEST.RES
F:\VENELIN\UPRAJNENIQ\ASM_ALGORITMI\PERMUTATIONS\PERMUTATIONS\DEBUG\PERMUTATIONS.OBJ
F:\VENELIN\UPRAJNENIQ\ASM_ALGORITMI\PERMUTATIONS\PERMUTATIONS\DEBUG\STDAFX.OBJ
C:\WINDOWS\SYSTEM32\TZRES.DLL
F:\VENELIN\UPRAJNENIQ\ASM_ALGORITMI\PERMUTATIONS\DEBUG\PERMUTATIONS.EXE
F:\VENELIN\UPRAJNENIQ\ASM_ALGORITMI\PERMUTATIONS\DEBUG\PERMUTATIONS.PDB
C:\WINDOWS\GLOBALIZATION\SORTING\SORTDEFAULT.NLS
C:\PROGRAM FILES (X86)\MICROSOFT VISUAL STUDIO 10.0\VC\LIB\MSVCPRTD.LIB
C:\PROGRAM FILES (X86)\MICROSOFT VISUAL STUDIO 10.0\VC\LIB\MSVCRTD.LIB
C:\PROGRAM FILES (X86)\MICROSOFT VISUAL STUDIO 10.0\VC\LIB\OLDNAMES.LIB
C:\PROGRAM FILES (X86)\MICROSOFT VISUAL STUDIO 10.0\VC\BIN\CVTRES.EXE
C:\PROGRAM FILES (X86)\MICROSOFT VISUAL STUDIO 10.0\VC\BIN\LINK.EXE
C:\WINDOWS\SYSTEM32\RSAENH.DLL
^D:\ASM_ALGORITMI\PERMUTATIONS\PERMUTATIONS\DEBUG\PERMUTATIONS.EXE.EMBED.MANIFEST.RES|D:\ASM_ALGORITMI\PERMUTATIONS\PERMUTATIONS\DEBUG\PERMUTATIONS.OBJ|D:\ASM_ALGORITMI\PERMUTATIONS\PERMUTATIONS\DEBUG\STDAFX.OBJ
C:\PROGRAM FILES\MICROSOFT SDKS\WINDOWS\V7.0A\LIB\KERNEL32.LIB
C:\PROGRAM FILES\MICROSOFT SDKS\WINDOWS\V7.0A\LIB\USER32.LIB
C:\PROGRAM FILES\MICROSOFT SDKS\WINDOWS\V7.0A\LIB\GDI32.LIB
C:\PROGRAM FILES\MICROSOFT SDKS\WINDOWS\V7.0A\LIB\WINSPOOL.LIB
C:\PROGRAM FILES\MICROSOFT SDKS\WINDOWS\V7.0A\LIB\COMDLG32.LIB
C:\PROGRAM FILES\MICROSOFT SDKS\WINDOWS\V7.0A\LIB\ADVAPI32.LIB
C:\PROGRAM FILES\MICROSOFT SDKS\WINDOWS\V7.0A\LIB\SHELL32.LIB
C:\PROGRAM FILES\MICROSOFT SDKS\WINDOWS\V7.0A\LIB\OLE32.LIB
C:\PROGRAM FILES\MICROSOFT SDKS\WINDOWS\V7.0A\LIB\OLEAUT32.LIB
C:\PROGRAM FILES\MICROSOFT SDKS\WINDOWS\V7.0A\LIB\UUID.LIB
C:\PROGRAM FILES\MICROSOFT SDKS\WINDOWS\V7.0A\LIB\ODBC32.LIB
C:\PROGRAM FILES\MICROSOFT SDKS\WINDOWS\V7.0A\LIB\ODBCCP32.LIB
D:\ASM_ALGORITMI\PERMUTATIONS\PERMUTATIONS\DEBUG\PERMUTATIONS.EXE.EMBED.MANIFEST.RES
D:\ASM_ALGORITMI\PERMUTATIONS\PERMUTATIONS\DEBUG\PERMUTATIONS.OBJ
D:\ASM_ALGORITMI\PERMUTATIONS\PERMUTATIONS\DEBUG\STDAFX.OBJ
C:\WINDOWS\GLOBALIZATION\SORTING\SORTDEFAULT.NLS
C:\PROGRAM FILES\MICROSOFT VISUAL STUDIO 10.0\VC\LIB\MSVCPRTD.LIB
C:\PROGRAM FILES\MICROSOFT VISUAL STUDIO 10.0\VC\LIB\MSVCRTD.LIB
C:\PROGRAM FILES\MICROSOFT VISUAL STUDIO 10.0\VC\LIB\OLDNAMES.LIB
C:\PROGRAM FILES\MICROSOFT VISUAL STUDIO 10.0\VC\BIN\CVTRES.EXE
C:\WINDOWS\SYSTEM32\TZRES.DLL
D:\ASM_ALGORITMI\PERMUTATIONS\DEBUG\PERMUTATIONS.EXE
C:\WINDOWS\SYSTEM32\RSAENH.DLL
D:\ASM_ALGORITMI\PERMUTATIONS\DEBUG\PERMUTATIONS.ILK
D:\ASM_ALGORITMI\PERMUTATIONS\DEBUG\PERMUTATIONS.PDB
